0
SECTION
2
HEADER
9
$INSUNITS
70
4
9
$ACADVER
1
AC1014
9
$HANDSEED
5
FFFF
0
ENDSEC
0
SECTION
2
TABLES
0
TABLE
2
VPORT
5
8
100
AcDbSymbolTable
0
ENDTAB
0
TABLE
2
LTYPE
5
5
100
AcDbSymbolTable
0
LTYPE
5
14
100
AcDbSymbolTableRecord
100
AcDbLinetypeTableRecord
2
BYBLOCK
70
0
0
LTYPE
5
15
100
AcDbSymbolTableRecord
100
AcDbLinetypeTableRecord
2
BYLAYER
70
0
0
ENDTAB
0
TABLE
2
LAYER
5
2
100
AcDbSymbolTable
70
2
0
LAYER
5
50
100
AcDbSymbolTableRecord
100
AcDbLayerTableRecord
2
0
70
0
6
CONTINUOUS
0
ENDTAB
0
TABLE
2
STYLE
5
3
100
AcDbSymbolTable
70
1
0
STYLE
5
11
100
AcDbSymbolTableRecord
100
AcDbTextStyleTableRecord
2
STANDARD
70
0
0
ENDTAB
0
TABLE
2
VIEW
5
6
100
AcDbSymbolTable
70
0
0
ENDTAB
0
TABLE
2
UCS
5
7
100
AcDbSymbolTable
70
0
0
ENDTAB
0
TABLE
2
APPID
5
9
100
AcDbSymbolTable
70
2
0
APPID
5
12
100
AcDbSymbolTableRecord
100
AcDbRegAppTableRecord
2
ACAD
70
0
0
ENDTAB
0
TABLE
2
DIMSTYLE
5
A
100
AcDbSymbolTable
70
1
0
ENDTAB
0
TABLE
2
BLOCK_RECORD
5
1
100
AcDbSymbolTable
70
1
0
BLOCK_RECORD
5
1F
100
AcDbSymbolTableRecord
100
AcDbBlockTableRecord
2
*MODEL_SPACE
0
BLOCK_RECORD
5
1B
100
AcDbSymbolTableRecord
100
AcDbBlockTableRecord
2
*PAPER_SPACE
0
ENDTAB
0
ENDSEC
0
SECTION
2
BLOCKS
0
BLOCK
5
20
100
AcDbEntity
100
AcDbBlockBegin
2
*MODEL_SPACE
0
ENDBLK
5
21
100
AcDbEntity
100
AcDbBlockEnd
0
BLOCK
5
1C
100
AcDbEntity
100
AcDbBlockBegin
2
*PAPER_SPACE
0
ENDBLK
5
1D
100
AcDbEntity
100
AcDbBlockEnd
0
ENDSEC
0
SECTION
2
ENTITIES
0
SPLINE
5
100
100
AcDbEntity
8
0
100
AcDbSpline
70
4
71
3
72
8
73
4
74
0
42
0.000000001
43
0.0000000001
44
0.0000000001
40
0
40
0
40
0
40
0
40
1
40
1
40
1
40
1
41
1
41
1
41
1
41
1
10
-40.109016032228773
20
55.547586108299924
30
0
10
-15.150137566038966
20
26.29154558356614
30
0
10
7.7132848153574951
20
62.908235165516629
30
0
10
-22.847561543779797
20
88.366843051834607
30
0
0
LINE
5
101
100
AcDbEntity
8
0
100
AcDbLine
10
-40.109016032228773
20
55.547586108299924
30
0
11
-59.85735920388035
21
17.999999999999989
31
0
0
LINE
5
102
100
AcDbEntity
8
0
100
AcDbLine
10
-59.85735920388035
20
17.999999999999989
30
0
11
-53.000000000000099
21
18.000000000000007
31
0
0
LINE
5
103
100
AcDbEntity
8
0
100
AcDbLine
10
-53.000000000000099
20
18.000000000000007
30
0
11
-53.000000000000107
21
7.9999999999999893
31
0
0
LINE
5
104
100
AcDbEntity
8
0
100
AcDbLine
10
-53.000000000000107
20
7.9999999999999893
30
0
11
-17.000000000000082
21
8.0000000000000071
31
0
0
LINE
5
105
100
AcDbEntity
8
0
100
AcDbLine
10
-17.000000000000082
20
8.0000000000000071
30
0
11
-17.000000000000071
21
18.000000000000078
31
0
0
LINE
5
106
100
AcDbEntity
8
0
100
AcDbLine
10
-17.000000000000071
20
18.000000000000078
30
0
11
-10.142640796119844
21
18.000000000000096
31
0
0
LINE
5
107
100
AcDbEntity
8
0
100
AcDbLine
10
-10.142640796119844
20
18.000000000000096
30
0
11
99.26553258497438
21
226.01809930442192
31
0
0
LINE
5
108
100
AcDbEntity
8
0
100
AcDbLine
10
99.26553258497438
20
226.01809930442192
30
0
11
49.550814177214249
21
226.01809930442192
31
0
0
LINE
5
109
100
AcDbEntity
8
0
100
AcDbLine
10
49.550814177214249
20
226.01809930442192
30
0
11
44.649417935825952
21
216.69905943232763
31
0
0
SPLINE
5
110
100
AcDbEntity
8
0
100
AcDbSpline
70
4
71
3
72
8
73
4
74
0
42
0.000000001
43
0.0000000001
44
0.0000000001
40
0
40
0
40
0
40
0
40
1
40
1
40
1
40
1
41
1
41
1
41
1
41
1
10
27.387963447376968
20
183.87980248879296
30
0
10
52.346841913566564
20
154.62376196405933
30
0
10
75.210264294963039
20
191.24045154600989
30
0
10
44.649417935825937
20
216.69905943232763
30
0
0
LINE
5
111
100
AcDbEntity
8
0
100
AcDbLine
10
27.387963447376968
20
183.87980248879296
30
0
11
22.150424775957358
21
173.92165397216328
31
0
0
SPLINE
5
112
100
AcDbEntity
8
0
100
AcDbSpline
70
4
71
3
72
8
73
4
74
0
42
0.000000001
43
0.0000000001
44
0.0000000001
40
0
40
0
40
0
40
0
40
1
40
1
40
1
40
1
41
1
41
1
41
1
41
1
10
4.8889702875083874
20
141.10239702862859
30
0
10
29.847848753698049
20
111.84635650389495
30
0
10
52.711271135094513
20
148.46304608584546
30
0
10
22.150424775957358
20
173.92165397216328
30
0
0
LINE
5
113
100
AcDbEntity
8
0
100
AcDbLine
10
4.8889702875083874
20
141.10239702862859
30
0
11
-0.34856838391122302
21
131.14424851199891
31
0
0
SPLINE
5
114
100
AcDbEntity
8
0
100
AcDbSpline
70
4
71
3
72
8
73
4
74
0
42
0.000000001
43
0.0000000001
44
0.0000000001
40
0
40
0
40
0
40
0
40
1
40
1
40
1
40
1
41
1
41
1
41
1
41
1
10
-17.610022872360183
20
98.324991568464256
30
0
10
7.3488555938295441
20
69.06895104373055
30
0
10
30.212277975226016
20
105.68564062568103
30
0
10
-0.34856838391122302
20
131.14424851199891
30
0
0
LINE
5
115
100
AcDbEntity
8
0
100
AcDbLine
10
-17.610022872360183
20
98.324991568464256
30
0
11
-22.84756154377979
21
88.366843051834607
31
0
0
ENDSEC
0
SECTION
2
OBJECTS
0
DICTIONARY
5
C
100
AcDbDictionary
3
ACAD_GROUP
350
D
3
ACAD_MLINESTYLE
350
17
0
DICTIONARY
5
D
100
AcDbDictionary
0
DICTIONARY
5
1A
330
C
100
AcDbDictionary
0
DICTIONARY
5
17
100
AcDbDictionary
0
ENDSEC
0
EOF
